0100 000 001 000 001
0100 000 010 000 001
0100 001 110 000 010
0100 000 101 000 001
0100 000 100 000 000
1111 000 001 100 000
0100 000 100 100 001
1111 000 010 100 000
0000 101 101 000 000
0100 000 101 101 001
0000 011 001 010 000
0100 000 100 100 001
0100 000 101 101 001
1111 000 011 100 000
0100 000 001 010 000
0100 000 010 011 000
1000 000 101 110 010
0010 000 000 001 010
0000 000 000 000 000

0000 100 001 010 101
0000 110 110 001 101
