verilog work "/home/dheeraj/MMIPS/MMIPS.srcs/sources_1/new/regfile.v"
verilog work "/home/dheeraj/MMIPS/MMIPS.srcs/sources_1/new/pc.v"
verilog work "/home/dheeraj/MMIPS/MMIPS.srcs/sources_1/new/instmem.v"
verilog work "/home/dheeraj/MMIPS/MMIPS.srcs/sources_1/new/datamem.v"
verilog work "/home/dheeraj/MMIPS/MMIPS.srcs/sources_1/new/controlunit.v"
verilog work "/home/dheeraj/MMIPS/MMIPS.srcs/sources_1/new/alu.v"
verilog work "/home/dheeraj/MMIPS/MMIPS.srcs/sources_1/new/topmodule.v"
verilog work "/home/dheeraj/MMIPS/MMIPS.srcs/sim_1/new/tb.v"
verilog work /opt/Xilinx/14.7/ISE_DS/PlanAhead/data/verilog/src/glbl.v
